%YAML 1.1
%TAG !u! tag:unity3d.com,2011:
--- !u!1045 &1
EditorBuildSettings:
  m_ObjectHideFlags: 0
  serializedVersion: 2
  m_Scenes:
  - enabled: 1
    path: Assets/Scenes/Pricipal.unity
    guid: 5f6ca3f0150e1a9488d8cd1f8173f580
  m_configObjects: {}
